{"results":[{"vote_count":1592,"id":297802,"video":false,"vote_average":6.9,"title":"Aquaman","popularity":580.411,"poster_path":"\/i2dF9UxOeb77CAJrOflj0RpqJRF.jpg","original_language":"en","original_title":"Aquaman","genre_ids":[28,14,878,12],"backdrop_path":"\/5A2bMlLfJrAfX9bqAibOL2gCruF.jpg","adult":false,"overview":"Arthur Curry learns that he is the heir to the underwater kingdom of Atlantis, and must step forward to lead his people and be a hero to the world.","release_date":"2018-12-07"},{"vote_count":479,"id":424783,"video":false,"vote_average":6.5,"title":"Bumblebee","popularity":365.512,"poster_path":"\/fw02ONlDhrYjTSZV8XO6hhU3ds3.jpg","original_language":"en","original_title":"Bumblebee","genre_ids":[28,12,878],"backdrop_path":"\/8bZ7guF94ZyCzi7MLHzXz6E5Lv8.jpg","adult":false,"overview":"On the run in the year 1987, Bumblebee finds refuge in a junkyard in a small Californian beach town. Charlie, on the cusp of turning 18 and trying to find her place in the world, discovers Bumblebee, battle-scarred and broken.  When Charlie revives him, she quickly learns this is no ordinary yellow VW bug.","release_date":"2018-12-15"},{"vote_count":1853,"id":405774,"video":false,"vote_average":7.3,"title":"Bird Box","popularity":279.08,"poster_path":"\/rGfGfgL2pEPCfhIvqHXieXFn7gp.jpg","original_language":"en","original_title":"Bird Box","genre_ids":[53,18,878,27],"backdrop_path":"\/z6m7s4w4Erxnr5k2jc1TZR1AMva.jpg","adult":false,"overview":"When a mysterious force decimates the world’s population, only one thing is certain: if you see it, you take your life. Facing the unknown, Malorie finds love, hope and a new beginning only for it to unravel. Now she must flee with her two children down a treacherous river to the one place left that may offer sanctuary. But to survive, they'll have to undertake the perilous two-day journey blindfolded.","release_date":"2018-12-13"},{"vote_count":2664,"id":338952,"video":false,"vote_average":7,"title":"Fantastic Beasts: The Crimes of Grindelwald","popularity":240.573,"poster_path":"\/kQKcbJ9uYkTQql2R8L4jTUz7l90.jpg","original_language":"en","original_title":"Fantastic Beasts: The Crimes of Grindelwald","genre_ids":[10751,14,12],"backdrop_path":"\/wDN3FIcQQ1HI7mz1OOKYHSQtaiE.jpg","adult":false,"overview":"Gellert Grindelwald has escaped imprisonment and has begun gathering followers to his cause—elevating wizards above all non-magical beings. The only one capable of putting a stop to him is the wizard he once called his closest friend, Albus Dumbledore. However, Dumbledore will need to seek help from the wizard who had thwarted Grindelwald once before, his former student Newt Scamander, who agrees to help, unaware of the dangers that lie ahead. Lines are drawn as love and loyalty are tested, even among the truest friends and family, in an increasingly divided wizarding world.","release_date":"2018-11-14"},{"vote_count":444,"id":404368,"video":false,"vote_average":7.4,"title":"Ralph Breaks the Internet","popularity":235.821,"poster_path":"\/m110vLaDDOCca4hfOcS5mK5cDke.jpg","original_language":"en","original_title":"Ralph Breaks the Internet","genre_ids":[10751,16,35],"backdrop_path":"\/88poTBTafMXaz73vYi3c74g0y2k.jpg","adult":false,"overview":"Six years after the events of \"Wreck-It Ralph,\" Ralph and Vanellope, now friends, discover a wi-fi router in their arcade, leading them into a new adventure.","release_date":"2018-11-20"},{"vote_count":715,"id":324857,"video":false,"vote_average":8.5,"title":"Spider-Man: Into the Spider-Verse","popularity":216.532,"poster_path":"\/laMM4lpQSh5z6KIBPwWogkjzBVQ.jpg","original_language":"en","original_title":"Spider-Man: Into the Spider-Verse","genre_ids":[28,12,16,878,35],"backdrop_path":"\/uUiId6cG32JSRI6RyBQSvQtLjz2.jpg","adult":false,"overview":"Miles Morales is juggling his life between being a high school student and being Spider-Man. However, when Wilson \"Kingpin\" Fisk uses a super collider, another Spider-Man from another dimension, Peter Parker, accidentally winds up in Miles' dimension. As Peter trains Miles to become a better Spider-Man, they are soon joined by four other Spider-Men from across the \"Spider-Verse\". As all these clashing dimensions start to tear Brooklyn apart, Miles must help the others stop Fisk and return everyone to their own dimensions.","release_date":"2018-12-07"},{"vote_count":405,"id":400650,"video":false,"vote_average":6.9,"title":"Mary Poppins Returns","popularity":215.987,"poster_path":"\/uTVGku4LibMGyKgQvjBtv3OYfAX.jpg","original_language":"en","original_title":"Mary Poppins Returns","genre_ids":[14,10402,10751],"backdrop_path":"\/cwiJQXezWz876K3jS57Sq56RYCZ.jpg","adult":false,"overview":"In Depression-era London, a now-grown Jane and Michael Banks, along with Michael's three children, are visited by the enigmatic Mary Poppins following a personal loss. Through her unique magical skills, and with the aid of her friend Jack, she helps the family rediscover the joy and wonder missing in their lives.","release_date":"2018-12-19"},{"vote_count":59,"id":504172,"video":false,"vote_average":6.1,"title":"The Mule","popularity":191.754,"poster_path":"\/t0idiLMalKMj2pLsvqHrOM4LPdQ.jpg","original_language":"en","original_title":"The Mule","genre_ids":[80,18,53],"backdrop_path":"\/rQiFIneBiShab7siVvufRPev9oQ.jpg","adult":false,"overview":"A 90-year-old horticulturalist and Korean War veteran is caught transporting $3 million worth of cocaine through Illinois for a Mexican drug cartel.","release_date":"2018-12-14"},{"vote_count":391,"id":480530,"video":false,"vote_average":6.4,"title":"Creed II","popularity":159.46,"poster_path":"\/v3QyboWRoA4O9RbcsqH8tJMe8EB.jpg","original_language":"en","original_title":"Creed II","genre_ids":[18,28],"backdrop_path":"\/8yqLPNwNCtpOPc3XkOlkSMnghzw.jpg","adult":false,"overview":"Follows Adonis Creed's life inside and outside of the ring as he deals with new found fame, issues with his family, and his continuing quest to become a champion.","release_date":"2018-11-20"},{"vote_count":435,"id":428078,"video":false,"vote_average":6.2,"title":"Mortal Engines","popularity":124.708,"poster_path":"\/uXJVpPXxZO4L8Rz3IG1Y8XvZJcg.jpg","original_language":"en","original_title":"Mortal Engines","genre_ids":[878,28,12],"backdrop_path":"\/rxYG6Sj95as9rv9wKIHUx6ATWd3.jpg","adult":false,"overview":"Set in a world many thousands of years in the future. Earth’s cities now roam the globe on huge wheels, devouring each other in a struggle for ever diminishing resources. On one of these massive Traction Cities, Tom Natsworthy has an unexpected encounter with a mysterious young woman from the Outlands who will change the course of his life forever.","release_date":"2018-12-06"},{"vote_count":12,"id":505954,"video":false,"vote_average":5.5,"title":"T-34","popularity":121.448,"poster_path":"\/wNJF8R5QE6nBT7DQoKk8t6YD1MM.jpg","original_language":"ru","original_title":"Т-34","genre_ids":[10752,18,12],"backdrop_path":"\/vDx8XxfYjkn573bCFGF6SkdM33Q.jpg","adult":false,"overview":"1941 - WWii. the second lieutenant Nikolai ivushkin, commander of a t-34, engages in an unequal battle against the tank ace Klaus Jager in a battle near moscow. His mission is more of a suicide - to destroy a dozen german tanks, all by himself. that said, luck does favour the bold. He wins the battle, barely survives, but loses his tank and lands himself in captivity for three long years... there was little to no chance for ivushkin and Jager to meet again, but the war knows how to throw a curve ball.in the spring of 1944, the Wehrmacht commands Jager to take charge of the ohrdruf  re range and turn it into a training center for elite german armored forces, using the latest t-34 as a running target. this is how Jager and ivushkin cross paths again. Jager o ers ivushkin to become the commander of a legendary tank and pick his crew from fellow camp prisoners. Nothing goes according to plan, though, when ivushkin uses exercises for a daring and carefully planned escape.","release_date":"2018-12-27"},{"vote_count":125,"id":507569,"video":false,"vote_average":6.2,"title":"The Seven Deadly Sins: Prisoners of the Sky","popularity":107.102,"poster_path":"\/r6pPUVUKU5eIpYj4oEzidk5ZibB.jpg","original_language":"ja","original_title":"劇場版 七つの大罪 天空の囚われ人","genre_ids":[28,12,14,16],"backdrop_path":"\/5xInMEyCa4mZoAgpxAfmH1kG3GM.jpg","adult":false,"overview":"Traveling in search of the rare ingredient, “sky fish”  Meliodas and Hawk arrive at a palace that floats above the clouds. The people there are busy preparing a ceremony, meant to protect their home from a ferocious beast that awakens once every 3,000 years. But before the ritual is complete, the Six Knights of Black—a Demon Clan army—removes the seal on the beast, threatening the lives of everyone in the Sky Palace.","release_date":"2018-08-18"},{"vote_count":471,"id":454293,"video":false,"vote_average":6,"title":"Night School","popularity":105.289,"poster_path":"\/uQVIQDc3foTPodZw0ie1Or0CXBn.jpg","original_language":"en","original_title":"Night School","genre_ids":[35],"backdrop_path":"\/jJBimY3DXIaIaL4NeGHfR0U0rSh.jpg","adult":false,"overview":"Teddy Walker is a successful salesman whose life takes an unexpected turn when he accidentally blows up his place of employment. Forced to attend night school to get his GED, Teddy soon finds himself dealing with a group of misfit students, his former high school nemesis and a feisty teacher who doesn't think he's too bright.","release_date":"2018-09-27"},{"vote_count":3153,"id":424694,"video":false,"vote_average":8.2,"title":"Bohemian Rhapsody","popularity":101.601,"poster_path":"\/lHu1wtNaczFPGFDTrjCSzeLPTKN.jpg","original_language":"en","original_title":"Bohemian Rhapsody","genre_ids":[18,10402],"backdrop_path":"\/pbXgLEYh8rlG2Km5IGZPnhcnuSz.jpg","adult":false,"overview":"Singer Freddie Mercury, guitarist Brian May, drummer Roger Taylor and bass guitarist John Deacon take the music world by storm when they form the rock 'n' roll band Queen in 1970. Hit songs become instant classics. When Mercury's increasingly wild lifestyle starts to spiral out of control, Queen soon faces its greatest challenge yet – finding a way to keep the band together amid the success and excess.","release_date":"2018-10-24"},{"vote_count":366,"id":375588,"video":false,"vote_average":5.9,"title":"Robin Hood","popularity":96.636,"poster_path":"\/AiRfixFcfTkNbn2A73qVJPlpkUo.jpg","original_language":"en","original_title":"Robin Hood","genre_ids":[12,28,53],"backdrop_path":"\/AuA50D7T7S7OEVcGo0ZKaMhERn0.jpg","adult":false,"overview":"A war-hardened Crusader and his Moorish commander mount an audacious revolt against the corrupt English crown.","release_date":"2018-11-20"},{"vote_count":77,"id":503314,"video":false,"vote_average":7.4,"title":"Dragon Ball Super: Broly","popularity":89.759,"poster_path":"\/518jdIQHCZmYqIcNCaqbZuDRheV.jpg","original_language":"ja","original_title":"Dragon Ball Super: Broly","genre_ids":[28,16,878],"backdrop_path":"\/6OTRuxpwUUGbmCX3MKP25dOmo59.jpg","adult":false,"overview":"Earth is peaceful following the Tournament of Power. Realizing that the universes still hold many more strong people yet to see, Goku spends all his days training to reach even greater heights. Then one day, Goku and Vegeta are faced by a Saiyan called 'Broly' who they've never seen before. The Saiyans were supposed to have been almost completely wiped out in the destruction of Planet Vegeta, so what's this one doing on Earth? This encounter between the three Saiyans who have followed completely different destinies turns into a stupendous battle, with even Frieza (back from Hell) getting caught up in the mix.","release_date":"2018-12-14"},{"vote_count":551,"id":446021,"video":false,"vote_average":6.7,"title":"Bad Times at the El Royale","popularity":87.084,"poster_path":"\/qExufIc4Rw0e4xdVZlhMdmEDGES.jpg","original_language":"en","original_title":"Bad Times at the El Royale","genre_ids":[53,80,9648,18],"backdrop_path":"\/gb3TVVZNNxVGNfS1NxGaiWZfwnW.jpg","adult":false,"overview":"Lake Tahoe, 1969. Seven strangers, each one with a secret to bury, meet at El Royale, a decadent motel with a dark past. In the course of a fateful night, everyone will have one last shot at redemption.","release_date":"2018-10-04"},{"vote_count":897,"id":484247,"video":false,"vote_average":6.5,"title":"A Simple Favor","popularity":77.805,"poster_path":"\/aIYsjQM0piKc0ibPBCTWv3sqshj.jpg","original_language":"en","original_title":"A Simple Favor","genre_ids":[53,80,9648,35,18],"backdrop_path":"\/xXGNyEG2v48q0bVR4AH4Vca2yvy.jpg","adult":false,"overview":"Stephanie, a dedicated mother and popular vlogger, befriends Emily, a mysterious upper-class woman whose son Nicky attends the same school as Miles, Stephanie's son. When Emily asks her to pick Nicky up from school and then disappears, Emily undertakes an investigation that will dive deep into Emily's cloudy past.","release_date":"2018-08-29"},{"vote_count":218,"id":399402,"video":false,"vote_average":5.7,"title":"Hunter Killer","popularity":68.777,"poster_path":"\/t7ZpEIxMnxaljIeor3XB1PUX4lm.jpg","original_language":"en","original_title":"Hunter Killer","genre_ids":[28,53],"backdrop_path":"\/6li27rYziFeLlOjQh0oPN8ZRCZD.jpg","adult":false,"overview":"An untested American submarine captain teams with U.S. Navy SEALs to rescue the Russian president, who has been kidnapped by a rogue general.","release_date":"2018-10-19"},{"vote_count":206,"id":398173,"video":false,"vote_average":7.1,"title":"The House That Jack Built","popularity":66.777,"poster_path":"\/pMabi1PjsVtHrHRf4S8yzdUTIWC.jpg","original_language":"en","original_title":"The House That Jack Built","genre_ids":[18,27,80,53],"backdrop_path":"\/itdm9wqCo03NZ3CGSz5P7eiMo68.jpg","adult":false,"overview":"Failed architect, engineer and vicious murderer Jack tells Verge the details of some of his most elaborately orchestrated crimes, each of them a towering piece of art that defines his life's work as a serial killer for twelve years.","release_date":"2018-10-08"}],"page":1,"total_results":905,"dates":{"maximum":"2019-01-09","minimum":"2018-11-22"},"total_pages":46}